^C:\USERS\ROBXP\DESKTOP\CODE PROJECTS\CPP\ELE\ELE\RELEASE\MAIN.OBJ
C:\USERS\ROBXP\DESKTOP\CODE PROJECTS\CPP\ELE\ELE\RELEASE\ELE.EXE
C:\USERS\ROBXP\DESKTOP\CODE PROJECTS\CPP\ELE\ELE\RELEASE\ELE.IPDB
C:\USERS\ROBXP\DESKTOP\CODE PROJECTS\CPP\ELE\ELE\RELEASE\ELE.IOBJ
C:\USERS\ROBXP\DESKTOP\CODE PROJECTS\CPP\ELE\ELE\RELEASE\ELE.PDB
